[
  {
    "name":"Red Skull",
    "profileId":"redSkullProfile",
    "profileImg":"red_skull.png",
    "backgroundImg":"red_skull_backing.jpg",
    "description":"Night Of seas fruitful image that man of beast heaven green own it after and shall. Likeness shall which creepeth to heaven living open fruit bring created air.",
    "heroVillain":"villain"
  },
  {
    "name":"Wolverine",
    "profileId":"wolverineProfile",
    "profileImg":"wolverine.png",
    "backgroundImg":"wolverine_backing.jpg",
    "description":"Night Of seas fruitful image that man of beast heaven green own it after and shall. Likeness shall which creepeth to heaven living open fruit bring created air.",
    "heroVillain":"hero"
  },
  {
    "name":"Thanos",
    "profileId":"thanosProfile",
    "profileImg":"thanos.png",
    "backgroundImg":"thanos_backing.jpg",
    "description":"Night Of seas fruitful image that man of beast heaven green own it after and shall. Likeness shall which creepeth to heaven living open fruit bring created air.",
    "heroVillain":"villain"
  },
  {
    "name":"She Hulk",
    "profileId":"sheHulkProfile",
    "profileImg":"she_hulk.png",
    "backgroundImg":"she_hulk_backing.jpg",
    "description":"Night Of seas fruitful image that man of beast heaven green own it after and shall. Likeness shall which creepeth to heaven living open fruit bring created air.",
    "heroVillain":"hero"
  },
  {
    "name":"Captain Marvel",
    "profileId":"captainMarvelProfile",
    "profileImg":"captain_marvel.png",
    "backgroundImg":"captain_marvel_backing.jpg",
    "description":"Night Of seas fruitful image that man of beast heaven green own it after and shall. Likeness shall which creepeth to heaven living open fruit bring created air.",
    "heroVillain":"hero"
  },
  {
    "name":"Mystique",
    "profileId":"mystiqueProfile",
    "profileImg":"mystique.png",
    "backgroundImg":"mystique_backing.jpg",
    "description":"Night Of seas fruitful image that man of beast heaven green own it after and shall. Likeness shall which creepeth to heaven living open fruit bring created air.",
    "heroVillain":"villain"
  },
  {
    "name":"Spiderman",
    "profileId":"spidermanProfile",
    "profileImg":"spiderman.png",
    "backgroundImg":"spiderman_backing.jpg",
    "description":"Night Of seas fruitful image that man of beast heaven green own it after and shall. Likeness shall which creepeth to heaven living open fruit bring created air.",
    "heroVillain":"hero"
  },
  {
    "name":"Dr. Doom",
    "profileId":"drDoomProfile",
    "profileImg":"dr_doom.png",
    "backgroundImg":"dr_doom_backing.jpg",
    "description":"Night Of seas fruitful image that man of beast heaven green own it after and shall. Likeness shall which creepeth to heaven living open fruit bring created air.",
    "heroVillain":"villain"
  }
]
